{
    "page": 2,
    "per_page": 6,
    "total": 12,
    "total_pages": 2,
    "data": [
        {
            "name": "Иван",
            "surname": "Иванов",
            "patronymic": "Иванович",
            "age": 30,
            "birthplace": "Москва",
            "phone": "+7 926 766 48 48"
        }
    ]
}